  {
    "_id" : "bsmith5843@gmail.com",
	
    "profile" : {
      "FacilityName" : "facilityname1",
      "StoreNo" : "1",
       "Img" : "",
       "contact" : {
           "FacilityOwner" : "bob",    
           "FacilityOwnerEmail" : "bsmith5843@gmail.com",
           "FacilityManager" : "bob",    
           "FacilityManagerEmail" : "bsmith5843@gmail.com",
           "fax" :"",
           "PhoneNo" : "6565656565"
       },
       "address" : {
           "Address" : "10 E 50th Ave",
           "Address2" : "",
           "Country" : "US",
           "State" : "CO",
           "City" : "Denver",
           "Zip" : "80216"
       }
    },
    
    "location" : {"type" : "Point", "coordinates" : [-104.9896298,39.7873868]},
    "advertise" : {
         "card": {
            "NameonCard":"bob smith",
            "Type":"Visa",
            "CardNumber":"7676767676767676",
            "expiryDate":"10/20",
            "CSC":"656"
            },
            
         "billing":{
           "StreetAddress1":"10 E 50th Ave",
            "StreetAddress2":"",
            "AptSuit":"",
            "Country/State":"CO",
            "City":"Denver",
            "PostalCode":"80216",
            "Phone":"6565656565"
          },
         "other":{
          "TypeofAdvertisement":"Banner",
          "Duration":"Year",
          "EmailID":"",
          "CityID":""
          }

    },
    "details" :{
       "options":       {"SSA":0,"SSANational":0,"SSAMobile":0, 
            "SSACanada":0,"SSAAustralia":0,"SSAEurope":0,"SSAUK":0,"RvBoatVehicleRentalSpace":0,"MovingTruckAvailableForFree":0,"MovingTruckAvailableForRent":0,"CanStoreWine":0,"DriveUpAccess":0,"BoxesAndSuppliesForPurchase":0,"ClimateControl":0,"BillPay":0,"BusinessCenterAvailable":0,"StorageRenterInsurance":0,"_24HourSecurityCameras":0,"_24HourAccessElectronicGate":0},
        "hours":  {"MonFri":"","Sat":"","Sun":""},
        "cardtypes":   {"Visa":0,"Mastercard":0,"Amex":0,"Discover":0},           
        "other":{"MoveInSpecials":"","AssociatedWebpageAddress":""},
        "about": {"GeneralDirection":"","neighborhoods":"",
            "AboutManager":"","AboutStaff":"","OtherSales":"","AssociatedRentals":""}
    },
       
      
    "AuctionListings" : [{
			"_id" : 1,
			"ListingNo": "1",
			"AuctionDate": "10/03/2015",
			"StartTime": "04:04 PM",
			"EndTime": "05:05 PM",
			"UnitNumber": "2",
			"UnitSize": "10x15",
			"FacilityLogTagID": "sdf",
			"AdditionalInfo": "",
			"ImageID1": "",
			"ImageID2": "",
			"ImageID3": "",
			"StorageFacilityName": "storagefacility1",
			"WebSite": "",
			"CreatedBy": "",
			"AuctionType" :"online"
    },
	{
			"_id" : 2,
			"ListingNo": "2",
			"AuctionDate": "07/03/2016",
			"StartTime": "10:04 PM",
			"EndTime": "10:05 PM",
			"UnitNumber": "20",
			"UnitSize": "10x15",
			"FacilityLogTagID": "skjdf",
			"AdditionalInfo": "",
			"ImageID1": "",
			"ImageID2": "",
			"ImageID3": "",
			"StorageFacilityName": "storagefacility1",
			"WebSite": "",
			"CreatedBy": "",
			"AuctionType" :"online"
    }
	],
    "units" : {    
          "DisplayPriceStatus" : false ,
          "TotalUnits" : 10,
          "TotalDiffUnitSizes" : 3,
          "FacilityUnits" :  [                   
                   { "Size" : "5x9",   "ClimateControl" : "",    "Quantity" : 2,     "Price" : 34    },
                   { "Size" : "10x20",  "ClimateControl" : "", "Quantity" : 3,  "Price" : 54 },
                   {  "Size" : "15x15",   "ClimateControl" : "", "Quantity" : 5,  "Price" : 65 }   
          ],

          "AvailableUnits" : [
                   { "Size" : "5x9",   "ClimateControl" : "",    "Quantity" : 2,     "Price" : 34    },
                   { "Size" : "10x20",  "ClimateControl" : "", "Quantity" : 3,  "Price" : 54 },
                   {  "Size" : "15x15",   "ClimateControl" : "", "Quantity" : 5,  "Price" : 65 }  
          ]		  
		  
    },
    "parking" :{
      "DisplayPriceStatus" : false ,
      "TotalUnits" : 0,
      "TotalDiffUnitSizes" : 0,
      "FacilityUnits" : [],
      "AvailableUnits" : []   
    },
    "rules" : ["Rule 1", "Rule 2"],
    "emailpref" : {
	    "Email" : "bsmith5843@gmail.com",
		"AllMail" : false,
		"News" : false   
    
    } 
 }
 
 
 